[
	{"name": "Business", "description": ""},
	{"name": "Economics/Finance", "description": ""},
	{"name": "Education", "description": ""},
	{"name": "Entrepreneurship", "description": ""},	
	{"name": "Fashion & Style", "description": ""},
	{"name": "Health/Fitness", "description": ""},
	{"name": "Humor", "description": ""},
	{"name": "Inspiration", "description": ""},
	{"name": "Movies", "description": ""},
	{"name": "Music", "description": ""},
	{"name": "News", "description": ""},
	{"name": "Politics", "description": ""},
	{"name": "Productivity", "description": ""},
	{"name": "Science", "description": ""},
	{"name": "Social Media", "description": ""},
	{"name": "Sports", "description": ""},
	{"name": "Technology", "description": ""}	
]